[
  {
    "ScriptType": "TableCreate",
    "Scripts": [
      {
        "ObjectName": "Post",
        "DbScript": [
          "create table dbo.Post (",
          " Id uniqueidentifier not null,",
          " PostSubject nvarchar(255) not null,",
          " PostMessage nvarchar(max) not null,",
          " CreatedBy varchar(255) null,",
          " Deleted bit not null default 0,",
          " DateCreated datetime not null,",
          " DateMofied datetime not null,",
          "constraint [Pk_Post] primary key clustered ",
          "(",
          " DateCreated DESC",
          ")with (pad_index = off, statistics_norecompute = off, ignore_dup_key = off, allow_row_locks = on, allow_page_locks = on) on [primary],",
          "constraint [Un_PostId] unique nonclustered ",
          "(",
          " Id DESC",
          ")with (pad_index = off, statistics_norecompute = off, ignore_dup_key = off, allow_row_locks = on, allow_page_locks = on) on [primary]",
          ") on [primary];"
        ]
      },
      {
        "ObjectName": "PostReply",
        "DbScript": [
          "create table dbo.PostReply (",
          " Id uniqueidentifier not null,",
          " PostId uniqueidentifier not null,",
          " ParentId uniqueidentifier null,",
          " Message varchar(255) not null,",
          " CreatedBy varchar(255) null,",
          " Deleted bit not null default 0,",
          " DateCreated datetime not null,",
          " DateMofied datetime not null,",
          "constraint [Pk_PostReply] primary key clustered ",
          "(",
          " DateCreated DESC",
          ")with (pad_index = off, statistics_norecompute = off, ignore_dup_key = off, allow_row_locks = on, allow_page_locks = on) on [primary],",
          "constraint [Un_PostReplyId] unique nonclustered ",
          "(",
          " Id DESC",
          ")with (pad_index = off, statistics_norecompute = off, ignore_dup_key = off, allow_row_locks = on, allow_page_locks = on) on [primary]",
          ") on [primary];",
          "alter table dbo.PostReply with check add  constraint Fk_PostId foreign key(PostId)",
          "references dbo.Post (PostId)",
          "alter table dbo.PostReply check constraint Fk_PostId"
        ]
      }
    ]
  }
]